{
    "key": "group_5f23f0ae688fc",
    "title": "Block - welcome",
    "fields": [
        {
            "key": "field_5f23f0b2465b6",
            "label": "welcome",
            "name": "welcome",
            "type": "wysiwyg",
            "instructions": "Content voor welkom sectie.",
            "required": 0,
            "conditional_logic": 0,
            "wrapper": {
                "width": "",
                "class": "",
                "id": ""
            },
            "default_value": "",
            "tabs": "all",
            "toolbar": "full",
            "media_upload": 1,
            "delay": 0
        }
    ],
    "location": [
        [
            {
                "param": "block",
                "operator": "==",
                "value": "acf\/welcome"
            }
        ]
    ],
    "menu_order": 0,
    "position": "normal",
    "style": "default",
    "label_placement": "top",
    "instruction_placement": "label",
    "hide_on_screen": "",
    "active": 1,
    "description": "",
    "modified": 1596190936
}